rvx10p_230102106/pipeline_tb.vcd
$date
	Thu Oct 30 23:44:34 2025
$end
$version
	Icarus Verilog
$end
$timescale
	1ps
$end
$scope module tb_pipeline $end
$var wire 32 ! WriteData [31:0] $end
$var wire 1 " MemWrite $end
$var wire 32 # DataAdr [31:0] $end
$var reg 1 $ clk $end
$var reg 1 % reset $end
$scope module dut $end
$var wire 1 $ clk $end
$var wire 1 % reset $end
$var wire 32 & pc_word [31:0] $end
$var wire 32 ' instr_fetched [31:0] $end
$var wire 32 ( dmem_readback [31:0] $end
$var wire 32 ) WriteData [31:0] $end
$var wire 1 " MemWrite $end
$var wire 32 * DataAdr [31:0] $end
$scope module cpu_core $end
$var wire 1 $ clk $end
$var wire 1 % reset $end
$var wire 32 + WriteData_out [31:0] $end
$var wire 32 , ReadData [31:0] $end
$var wire 32 - PC [31:0] $end
$var wire 1 " MemWrite_out $end
$var wire 32 . InstrIF [31:0] $end
$var wire 32 / DataAdr_out [31:0] $end
$scope module pipeline_core $end
$var wire 1 " MemWrite_out $end
$var wire 32 0 PC [31:0] $end
$var wire 32 1 WriteData_out [31:0] $end
$var wire 32 2 alu_a_pre [31:0] $end
$var wire 1 $ clk $end
$var wire 5 3 exmem_rd_wire [4:0] $end
$var wire 1 4 exmem_regwrite_wire $end
$var wire 1 5 flushD $end
$var wire 32 6 instr_d [31:0] $end
$var wire 5 7 memwb_rd_wire [4:0] $end
$var wire 1 8 memwb_regwrite_wire $end
$var wire 1 9 pc_take $end
$var wire 1 % reset $end
$var wire 1 : zero_e $end
$var wire 1 ; stallF $end
$var wire 1 < stallD $end
$var wire 5 = rs2_d [4:0] $end
$var wire 5 > rs1_d [4:0] $end
$var wire 32 ? rf_rd2_d [31:0] $end
$var wire 32 @ rf_rd1_d [31:0] $end
$var wire 5 A rd_d [4:0] $end
$var wire 32 B pc_target [31:0] $end
$var wire 32 C pc_plus4 [31:0] $end
$var wire 32 D pc_next_word [31:0] $end
$var wire 32 E memwb_result [31:0] $end
$var wire 12 F imm_s [11:0] $end
$var wire 21 G imm_j [20:0] $end
$var wire 12 H imm_i [11:0] $end
$var wire 13 I imm_b [12:0] $end
$var wire 2 J forwardB [1:0] $end
$var wire 2 K forwardA [1:0] $end
$var wire 1 L flushE $end
$var wire 5 M ex_rs2 [4:0] $end
$var wire 5 N ex_rs1 [4:0] $end
$var wire 32 O alu_result_e [31:0] $end
$var wire 32 P alu_b_pre [31:0] $end
$var wire 2 Q ResultSrcD [1:0] $end
$var wire 1 R RegWriteD $end
$var wire 32 S ReadData [31:0] $end
$var wire 1 T MemWriteD $end
$var wire 1 U MemToRegD $end
$var wire 1 V MemReadE $end
$var wire 1 W JumpD $end
$var wire 32 X InstrIF [31:0] $end
$var wire 2 Y ImmSrcD [1:0] $end
$var wire 32 Z DataAdr_out [31:0] $end
$var wire 1 [ BranchD $end
$var wire 1 \ ALUSrcD $end
$var wire 2 ] ALUOpD [1:0] $end
$var parameter 5 ^ C_ABS $end
$var parameter 5 _ C_ADD $end
$var parameter 5 ` C_AND $end
$var parameter 5 a C_ANDN $end
$var parameter 5 b C_MAX $end
$var parameter 5 c C_MAXU $end
$var parameter 5 d C_MIN $end
$var parameter 5 e C_MINU $end
$var parameter 5 f C_OR $end
$var parameter 5 g C_ORN $end
$var parameter 5 h C_ROL $end
$var parameter 5 i C_ROR $end
$var parameter 5 j C_SLL $end
$var parameter 5 k C_SLT $end
$var parameter 5 l C_SRL $end
$var parameter 5 m C_SUB $end
$var parameter 5 n C_XNOR $end
$var parameter 5 o C_XOR $end
$var reg 5 p alu_ctrl_e [4:0] $end
$var reg 32 q alu_in_a [31:0] $end
$var reg 32 r alu_in_b [31:0] $end
$var reg 1 s branch_taken_e $end
$var reg 32 t cnt_branches [31:0] $end
$var reg 32 u cnt_cycles [31:0] $end
$var reg 32 v cnt_flushes [31:0] $end
$var reg 32 w cnt_instructions [31:0] $end
$var reg 32 x cnt_stalls [31:0] $end
$var reg 1 y exmem_MemToReg_r $end
$var reg 1 z exmem_MemWrite_r $end
$var reg 1 4 exmem_RegWrite_r $end
$var reg 32 { exmem_alu_out [31:0] $end
$var reg 5 | exmem_rd [4:0] $end
$var reg 32 } exmem_store_data [31:0] $end
$var reg 2 ~ idex_ALUOp [1:0] $end
$var reg 1 !" idex_ALUSrc $end
$var reg 1 "" idex_Branch $end
$var reg 1 #" idex_Jump $end
$var reg 1 $" idex_MemToReg $end
$var reg 1 %" idex_MemWrite $end
$var reg 1 &" idex_RegWrite $end
$var reg 2 '" idex_ResultSrc [1:0] $end
$var reg 3 (" idex_f3 [2:0] $end
$var reg 7 )" idex_f7 [6:0] $end
$var reg 32 *" idex_imm [31:0] $end
$var reg 7 +" idex_op [6:0] $end
$var reg 32 ," idex_pc [31:0] $end
$var reg 5 -" idex_rd [4:0] $end
$var reg 32 ." idex_rf1 [31:0] $end
$var reg 32 /" idex_rf2 [31:0] $end
$var reg 5 0" idex_rs1 [4:0] $end
$var reg 5 1" idex_rs2 [4:0] $end
$var reg 32 2" if_id_instr [31:0] $end
$var reg 32 3" if_id_pc [31:0] $end
$var reg 32 4" imm_ext_d [31:0] $end
$var reg 1 5" memwb_MemToReg_r $end
$var reg 1 8 memwb_RegWrite_r $end
$var reg 32 6" memwb_alu_out [31:0] $end
$var reg 5 7" memwb_rd [4:0] $end
$var reg 32 8" memwb_readback [31:0] $end
$var reg 32 9" pc_reg [31:0] $end
$var reg 32 :" store_data_forwarded [31:0] $end
$var integer 32 ;" idx [31:0] $end
$scope function alu_ctrl_gen $end
$var reg 2 <" aluop [1:0] $end
$var reg 3 =" f3 [2:0] $end
$var reg 7 >" f7 [6:0] $end
$var reg 7 ?" op [6:0] $end
$upscope $end
$scope function alu_exec $end
$var reg 32 @" a [31:0] $end
$var reg 32 A" add_r [31:0] $end
$var reg 32 B" b [31:0] $end
$var reg 5 C" ctrl [4:0] $end
$var reg 32 D" sub_r [31:0] $end
$upscope $end
$scope module decoder $end
$var wire 7 E" opcode [6:0] $end
$var wire 2 F" ResultSrc [1:0] $end
$var wire 1 R RegWrite $end
$var wire 1 T MemWrite $end
$var wire 1 U MemToReg $end
$var wire 1 W Jump $end
$var wire 2 G" ImmSrc [1:0] $end
$var wire 1 [ Branch $end
$var wire 1 \ ALUSrc $end
$var wire 2 H" ALUOp [1:0] $end
$var parameter 7 I" OP_BRANCH $end
$var parameter 7 J" OP_ITYPE $end
$var parameter 7 K" OP_JAL $end
$var parameter 7 L" OP_JALR $end
$var parameter 7 M" OP_LW $end
$var parameter 7 N" OP_RTYPE $end
$var parameter 7 O" OP_RVX10 $end
$var parameter 7 P" OP_SW $end
$var reg 12 Q" ctrl [11:0] $end
$upscope $end
$scope module fwdunit $end
$var wire 5 R" RdM [4:0] $end
$var wire 5 S" RdW [4:0] $end
$var wire 1 4 RegWriteM $end
$var wire 1 8 RegWriteW $end
$var wire 5 T" Rs1E [4:0] $end
$var wire 5 U" Rs2E [4:0] $end
$var wire 1 V" matchM_rs1 $end
$var wire 1 W" matchM_rs2 $end
$var wire 1 X" matchW_rs1 $end
$var wire 1 Y" matchW_rs2 $end
$var wire 2 Z" ForwardB [1:0] $end
$var wire 2 [" ForwardA [1:0] $end
$var parameter 2 \" F_MEM $end
$var parameter 2 ]" F_NONE $end
$var parameter 2 ^" F_WB $end
$upscope $end
$scope module hunit $end
$var wire 1 V MemReadE $end
$var wire 5 _" RdE [4:0] $end
$var wire 5 `" Rs1D [4:0] $end
$var wire 5 a" Rs2D [4:0] $end
$var wire 1 L flushE $end
$var wire 1 b" load_use_hazard $end
$var wire 1 < stallD $end
$var wire 1 ; stallF $end
$upscope $end
$upscope $end
$upscope $end
$scope module data_mem_inst $end
$var wire 32 c" a [31:0] $end
$var wire 1 $ clk $end
$var wire 32 d" rd [31:0] $end
$var wire 1 % reset $end
$var wire 32 e" wd [31:0] $end
$var wire 1 " we $end
$var parameter 32 f" DEPTH $end
$scope begin zero_init $end
$var integer 32 g" ii [31:0] $end
$upscope $end
$upscope $end
$scope module instr_mem_inst $end
$var wire 32 h" a [31:0] $end
$var wire 32 i" rd [31:0] $end
$var parameter 32 j" WORDS $end
$upscope $end
$upscope $end
$upscope $end
$enddefinitions $end
$comment Show the parameter values. $end
$dumpall
b1000000 j"
b1000000 f"
b10 ^"
b0 ]"
b1 \"
b100011 P"
b1011 O"
b110011 N"
b11 M"
b1100111 L"
b1101111 K"
b10011 J"
b1100011 I"
b100 o
b1010 n
b1 m
b111 l
b101 k
b110 j
b10000 i
b1111 h
b1001 g
b11 f
b1101 e
b1011 d
b1110 c
b1100 b
b1000 a
b10 `
b0 _
b10001 ^
$end
#0
$dumpvars
b10010011 i"
b0 h"
b1000000 g"
b0 e"
b0 d"
b0 c"
0b"
b0 a"
b0 `"
b0 _"
b0 ["
b0 Z"
0Y"
0X"
0W"
0V"
b0 U"
b0 T"
b0 S"
b0 R"
b100100100000 Q"
b10 H"
b0 G"
b0 F"
b10011 E"
b0 D"
b0 C"
b0 B"
b0 A"
b0 @"
b0 ?"
b0 >"
b0 ="
b0 <"
b100000 ;"
b0 :"
b0 9"
b0 8"
b0 7"
b0 6"
05"
b0 4"
b0 3"
b10011 2"
b0 1"
b0 0"
b0 /"
b0 ."
b0 -"
b0 ,"
b0 +"
b0 *"
b0 )"
b0 ("
b0 '"
0&"
0%"
0$"
0#"
0""
0!"
b0 ~
b0 }
b0 |
b0 {
0z
0y
b0 x
b0 w
b0 v
b0 u
b0 t
0s
b0 r
b0 q
b0 p
b10 ]
1\
0[
b0 Z
b0 Y
b10010011 X
0W
0V
0U
0T
b0 S
1R
b0 Q
b0 P
b0 O
b0 N
b0 M
0L
b0 K
b0 J
b0 I
b0 H
b0 G
b0 F
b0 E
b100 D
b100 C
b0 B
b0 A
b0 @
b0 ?
b0 >
b0 =
0<
0;
1:
09
08
b0 7
b10011 6
05
04
b0 3
b0 2
b0 1
b0 0
b0 /
b10010011 .
b0 -
b0 ,
b0 +
b0 *
b0 )
b0 (
b10010011 '
b0 &
1%
1$
b0 #
0"
b0 !
$end
#5000
0$
#10000
1$
#15000
0$
#20000
1$
#22000
0%
#25000
0$
#30000
b10 <"
b10011 ?"
b1 A
b1 F
b100000000000 I
b1000 D
b100000000000100010011 '
b100000000000100010011 .
b100000000000100010011 X
b100000000000100010011 i"
b10011 +"
b10 ~
1!"
1&"
b10010011 6
b10010011 2"
b1000 C
b100 &
b100 -
b100 0
b100 h"
b100 9"
b1 u
1$
#35000
0$
#40000
b1 4"
b1100 D
b1000001000000110110011 '
b1000001000000110110011 .
b1000001000000110110011 X
b1000001000000110110011 i"
b1 =
b1 a"
b10 A
b1 H
b10 F
b10 I
b100000000000 G
b10 u
b1100 C
b1000 &
b1000 -
b1000 0
b1000 h"
b1000 9"
b100000000000100010011 6
b100000000000100010011 2"
b100 3"
b1 -"
b1 _"
14
1$
#45000
0$
#50000
b1 J
b1 Z"
0\
1W"
0:
b1 O
b11111111111111111111111111111111 D"
b1 A"
b1 B"
b100000100000 Q"
b10 4"
b1 r
b1 P
b1 >
b1 `"
b10 =
b10 a"
b11 A
b110011 E"
b10 H
b11 F
b100000000010 I
b1000000000000010 G
b10000 D
b1100010000001000110011 '
b1100010000001000110011 .
b1100010000001000110011 X
b1100010000001000110011 i"
18
b1 3
b1 |
b1 R"
b10 -"
b10 _"
b1 M
b1 1"
b1 U"
b100 ,"
b101 B
b1 *"
b1000001000000110110011 6
b1000001000000110110011 2"
b1000 3"
b10000 C
b1100 &
b1100 -
b1100 0
b1100 h"
b1100 9"
b11 u
1$
#55000
0$
#60000
b10 K
b10 ["
b11 4"
b1 r
1X"
b10100 D
b10000011000001110110011 '
b10000011000001110110011 .
b10000011000001110110011 X
b10000011000001110110011 i"
b10 >
b10 `"
b11 =
b11 a"
b100 A
b11 H
b100 F
b100 I
b10000100000000010 G
b110011 ?"
b0 P
b1 :"
b100 u
b10100 C
b10000 &
b10000 -
b10000 0
b10000 h"
b10000 9"
b1100010000001000110011 6
b1100010000001000110011 2"
b1100 3"
b110011 +"
0!"
b11 -"
b11 _"
b10 M
b10 1"
b10 U"
b1 N
b1 0"
b1 T"
b1000 ,"
b1010 B
b10 *"
b10 3
b10 |
b10 R"
b1 #
b1 *
b1 /
b1 Z
b1 {
b1 c"
b1 7
b1 7"
b1 S"
1$
#65000
0$
#70000
b10 O
b0 D"
b10 A"
b1 @"
b100 4"
b1 E
b1 :"
b1 q
b1 r
b11 >
b11 `"
b100 =
b100 a"
b111 A
b100 H
b111 F
b100000000110 I
b11000000000000100 G
b11000 D
b10100100000010000110011 '
b10100100000010000110011 .
b10100100000010000110011 X
b10100100000010000110011 i"
b1 w
b10 7
b10 7"
b10 S"
b1 6"
b11 3
b11 |
b11 R"
b1 !
b1 )
b1 +
b1 1
b1 e"
b1 }
b100 -"
b100 _"
b11 M
b11 1"
b11 U"
b10 N
b10 0"
b10 T"
b1100 ,"
b1111 B
b11 *"
b10000011000001110110011 6
b10000011000001110110011 2"
b10000 3"
b11000 C
b10100 &
b10100 -
b10100 0
b10100 h"
b10100 9"
b101 u
1$
#75000
0$
#80000
b101 4"
b11 O
b11111111111111111111111111111111 D"
b11 A"
b10 B"
b11100 D
b11000101000010110110011 '
b11000101000010110110011 .
b11000101000010110110011 X
b11000101000010110110011 i"
b100 >
b100 `"
b101 =
b101 a"
b1000 A
b101 H
b1000 F
b1000 I
b100000100000000100 G
b10 r
b1 q
b10 :"
b10 w
b110 u
b11100 C
b11000 &
b11000 -
b11000 0
b11000 h"
b11000 9"
b10100100000010000110011 6
b10100100000010000110011 2"
b10100 3"
b111 -"
b111 _"
b100 M
b100 1"
b100 U"
b11 N
b11 0"
b11 T"
b10000 ,"
b10100 B
b100 *"
b100 3
b100 |
b100 R"
b10 #
b10 *
b10 /
b10 Z
b10 {
b10 c"
b11 7
b11 7"
b11 S"
1$
#85000
0$
#90000
b10 D"
b0 J
b0 Z"
b10 O
b10 A"
b0 B"
b10 @"
b110 4"
b10 E
b0 :"
0W"
b0 r
b10 q
b101 >
b101 `"
b110 =
b110 a"
b1011 A
b110 H
b1011 F
b100000001010 I
b101000000000000110 G
b100000 D
b11100110000011000110011 '
b11100110000011000110011 .
b11100110000011000110011 X
b11100110000011000110011 i"
b11 w
b100 7
b100 7"
b100 S"
b10 6"
b111 3
b111 |
b111 R"
b10 !
b10 )
b10 +
b10 1
b10 e"
b10 }
b11 #
b11 *
b11 /
b11 Z
b11 {
b11 c"
b1000 -"
b1000 _"
b101 M
b101 1"
b101 U"
b100 N
b100 0"
b100 T"
b10100 ,"
b11001 B
b101 *"
b11000101000010110110011 6
b11000101000010110110011 2"
b11000 3"
b100000 C
b11100 &
b11100 -
b11100 0
b11100 h"
b11100 9"
b111 u
1$
#95000
0$
#100000
1:
b0 K
b0 ["
b111 4"
b0 O
b0 D"
b0 A"
b0 @"
b100100 D
b110000000000010000000100011 '
b110000000000010000000100011 .
b110000000000010000000100011 X
b110000000000010000000100011 i"
b110 >
b110 `"
b111 =
b111 a"
b1100 A
b111 H
b1100 F
b1100 I
b110000100000000110 G
0X"
b0 q
b11 E
b100 w
b1000 u
b100100 C
b100000 &
b100000 -
b100000 0
b100000 h"
b100000 9"
b11100110000011000110011 6
b11100110000011000110011 2"
b11100 3"
b1011 -"
b1011 _"
b110 M
b110 1"
b110 U"
b101 N
b101 0"
b101 T"
b11000 ,"
b11110 B
b110 *"
b1000 3
b1000 |
b1000 R"
b0 !
b0 )
b0 +
b0 1
b0 e"
b0 }
b10 #
b10 *
b10 /
b10 Z
b10 {
b10 c"
b111 7
b111 7"
b111 S"
b11 6"
1$
#105000
0$
#110000
b1 Y
b1 G"
1\
1T
0R
b0 ]
b0 H"
b10100000100 Q"
b1100000 4"
b10 E
b0 >
b0 `"
b0 =
b0 a"
b0 A
b100011 E"
b1100000 H
b1100000 F
b1100000 I
b10000001100000 G
b101000 D
b10100000000010100010011 '
b10100000000010100010011 .
b10100000000010100010011 X
b10100000000010100010011 i"
b101 w
b1000 7
b1000 7"
b1000 S"
b10 6"
b1011 3
b1011 |
b1011 R"
b0 #
b0 *
b0 /
b0 Z
b0 {
b0 c"
b1100 -"
b1100 _"
b111 M
b111 1"
b111 U"
b110 N
b110 0"
b110 T"
b11100 ,"
b100011 B
b111 *"
b110000000000010000000100011 6
b110000000000010000000100011 2"
b100000 3"
b101000 C
b100100 &
b100100 -
b100100 0
b100100 h"
b100100 9"
b1001 u
1$
#115000
0$
#120000
b10 ]
b10 H"
1R
0T
b0 Y
b0 G"
0:
b1100000 O
b11111111111111111111111110100000 D"
b1100000 A"
b1100000 B"
b100100100000 Q"
b101 4"
b1100000 r
b101100 D
b1100000000010110010011 '
b1100000000010110010011 .
b1100000000010110010011 X
b1100000000010110010011 i"
b101 =
b101 a"
b1010 A
b10011 E"
b101 H
b1010 F
b1010 I
b100000000100 G
b0 <"
b10 ="
b11 >"
b100011 ?"
b1100000 P
b0 E
b110 w
b1010 u
b101100 C
b101000 &
b101000 -
b101000 0
b101000 h"
b101000 9"
b10100000000010100010011 6
b10100000000010100010011 2"
b100100 3"
b100011 +"
b11 )"
b10 ("
b0 ~
1!"
1%"
0&"
b0 -"
b0 _"
b0 M
b0 1"
b0 U"
b0 N
b0 0"
b0 T"
b100000 ,"
b10000000 B
b1100000 *"
b1100 3
b1100 |
b1100 R"
b1011 7
b1011 7"
b1011 S"
b0 6"
1$
#125000
0$
#130000
b0 K
b0 ["
b101 O
b11111111111111111111111111111011 D"
b101 A"
b101 B"
b1 ?
b11 4"
0V"
b10 <"
b0 ="
b0 >"
b10011 ?"
b101 r
b101 P
b11 =
b11 a"
b1011 A
b11 H
b1011 F
b100000001010 I
b100000000010 G
b110000 D
b100000000000011000010011 '
b100000000000011000010011 .
b100000000000011000010011 X
b100000000000011000010011 i"
b111 w
b1100 7
b1100 7"
b1100 S"
1"
1z
04
b0 3
b0 |
b0 R"
b1100000 #
b1100000 *
b1100000 /
b1100000 Z
b1100000 {
b1100000 c"
b10011 +"
b0 )"
b0 ("
b10 ~
0%"
1&"
b1010 -"
b1010 _"
b101 M
b101 1"
b101 U"
b100100 ,"
b101001 B
b101 *"
b1100000000010110010011 6
b1100000000010110010011 2"
b101000 3"
b110000 C
b101100 &
b101100 -
b101100 0
b101100 h"
b101100 9"
b1011 u
1$
#135000
0$
#140000
b11 O
b11111111111111111111111111111101 D"
b11 A"
b11 B"
b0 K
b0 ["
b10 ?
b1000 4"
b11 r
b110100 D
b11111111101100000000011010010011 '
b11111111101100000000011010010011 .
b11111111101100000000011010010011 X
b11111111101100000000011010010011 i"
b1000 =
b1000 a"
b1100 A
b1000 H
b1100 F
b1100 I
b1000 G
b11 P
0X"
b1 :"
b1100000 E
b1000 w
b1100 u
b110100 C
b110000 &
b110000 -
b110000 0
b110000 h"
b110000 9"
b100000000000011000010011 6
b100000000000011000010011 2"
b101100 3"
b1011 -"
b1011 _"
b11 M
b11 1"
b11 U"
b101000 ,"
b101011 B
b11 *"
b1 /"
0"
0z
14
b1010 3
b1010 |
b1010 R"
b101 #
b101 *
b101 /
b101 Z
b101 {
b101 c"
08
b0 7
b0 7"
b0 S"
b1100000 6"
1$
#145000
0$
#150000
b1000 O
b11111111111111111111111111111000 D"
b1000 A"
b1000 B"
b0 ?
b11111111111111111111111111111011 4"
b101 E
b1000 r
b1000 P
b10 :"
b11011 =
b11011 a"
b1101 A
b111111111011 H
b111111101101 F
b1111111101100 I
b100000000111111111010 G
b111000 D
b111000010011 '
b111000010011 .
b111000010011 X
b111000010011 i"
18
b1010 7
b1010 7"
b1010 S"
b101 6"
b1011 3
b1011 |
b1011 R"
b1 !
b1 )
b1 +
b1 1
b1 e"
b1 }
b11 #
b11 *
b11 /
b11 Z
b11 {
b11 c"
b1100 -"
b1100 _"
b1000 M
b1000 1"
b1000 U"
b101100 ,"
b110100 B
b1000 *"
b10 /"
b11111111101100000000011010010011 6
b11111111101100000000011010010011 2"
b110000 3"
b111000 C
b110100 &
b110100 -
b110100 0
b110100 h"
b110100 9"
b1101 u
1$
#155000
0$
#160000
b0 4"
b101 O
b101 D"
b11111111111111111111111111111011 A"
b1 C"
b11111111111111111111111111111011 B"
b11111111111111111111111111111011 r
b111100 D
b100000111000011110110011 '
b100000111000011110110011 .
b100000111000011110110011 X
b100000111000011110110011 i"
b0 =
b0 a"
b11100 A
b0 H
b11100 F
b11100 I
b0 G
b1 p
b1111111 >"
b11111111111111111111111111111011 P
b0 :"
b11 E
b1001 w
b1110 u
b111100 C
b111000 &
b111000 -
b111000 0
b111000 h"
b111000 9"
b111000010011 6
b111000010011 2"
b110100 3"
b1111111 )"
b1101 -"
b1101 _"
b11011 M
b11011 1"
b11011 U"
b110000 ,"
b101011 B
b11111111111111111111111111111011 *"
b0 /"
b1100 3
b1100 |
b1100 R"
b10 !
b10 )
b10 +
b10 1
b10 e"
b10 }
b1000 #
b1000 *
b1000 /
b1000 Z
b1000 {
b1000 c"
b1011 7
b1011 7"
b1011 S"
b11 6"
1$
#165000
0$
#170000
0\
1:
b0 O
b0 D"
b0 A"
b0 C"
b0 B"
b11 @
b10 ?
b100000100000 Q"
b1000 4"
b1000 E
b0 p
b0 >"
b0 r
b0 P
b111 >
b111 `"
b1000 =
b1000 a"
b1111 A
b110011 E"
b1000 H
b1111 F
b100000001110 I
b111000000000001000 G
b1000000 D
b100101000000100000110011 '
b100101000000100000110011 .
b100101000000100000110011 X
b100101000000100000110011 i"
b1010 w
b1100 7
b1100 7"
b1100 S"
b1000 6"
b1101 3
b1101 |
b1101 R"
b0 !
b0 )
b0 +
b0 1
b0 e"
b0 }
b101 #
b101 *
b101 /
b101 Z
b101 {
b101 c"
b0 )"
b11100 -"
b11100 _"
b0 M
b0 1"
b0 U"
b110100 ,"
b110100 B
b0 *"
b100000111000011110110011 6
b100000111000011110110011 2"
b111000 3"
b1000000 C
b111100 &
b111100 -
b111100 0
b111100 h"
b111100 9"
b1111 u
1$
#175000
0$
#180000
b10 B"
b10 @
b0 ?
b1001 4"
b10 r
0:
b101 O
b1 D"
b101 A"
b11 @"
b1000100 D
b101001001000100110110011 '
b101001001000100110110011 .
b101001001000100110110011 X
b101001001000100110110011 i"
b1000 >
b1000 `"
b1001 =
b1001 a"
b10000 A
b1001 H
b10000 F
b10000 I
b1000000100000001000 G
b110011 ?"
b10 P
b10 :"
b11 q
b101 E
b1011 w
b10000 u
b1000100 C
b1000000 &
b1000000 -
b1000000 0
b1000000 h"
b1000000 9"
b100101000000100000110011 6
b100101000000100000110011 2"
b111100 3"
b110011 +"
0!"
b1111 -"
b1111 _"
b1000 M
b1000 1"
b1000 U"
b111 N
b111 0"
b111 T"
b111000 ,"
b1000000 B
b1000 *"
b10 /"
b11 2
b11 ."
b11100 3
b11100 |
b11100 R"
b0 #
b0 *
b0 /
b0 Z
b0 {
b0 c"
b1101 7
b1101 7"
b1101 S"
b101 6"
1$
#185000
0$
#190000
b0 B"
b0 r
b10 O
b10 D"
b10 A"
b10 @"
b0 @
b101 ?
b1010 4"
b0 E
b0 :"
b0 P
b10 q
b1001 >
b1001 `"
b1010 =
b1010 a"
b10011 A
b1010 H
b10011 F
b100000010010 I
b1001000000000001010 G
b1001000 D
b101101010000101000110011 '
b101101010000101000110011 .
b101101010000101000110011 X
b101101010000101000110011 i"
b1100 w
b11100 7
b11100 7"
b11100 S"
b0 6"
b1111 3
b1111 |
b1111 R"
b10 !
b10 )
b10 +
b10 1
b10 e"
b10 }
b101 #
b101 *
b101 /
b101 Z
b101 {
b101 c"
b10000 -"
b10000 _"
b1001 M
b1001 1"
b1001 U"
b1000 N
b1000 0"
b1000 T"
b111100 ,"
b1000101 B
b1001 *"
b0 /"
b10 2
b10 ."
b101001001000100110110011 6
b101001001000100110110011 2"
b1000000 3"
b1001000 C
b1000100 &
b1000100 -
b1000100 0
b1000100 h"
b1000100 9"
b10001 u
1$
#195000
0$
#200000
b101 B"
b101 @
b11 ?
b1011 4"
b101 r
0:
b101 O
b11111111111111111111111111111011 D"
b101 A"
b0 @"
b1001100 D
b110001011000101100110011 '
b110001011000101100110011 .
b110001011000101100110011 X
b110001011000101100110011 i"
b1010 >
b1010 `"
b1011 =
b1011 a"
b10100 A
b1011 H
b10100 F
b10100 I
b1010000100000001010 G
b101 P
b101 :"
b0 q
b101 E
b1101 w
b10010 u
b1001100 C
b1001000 &
b1001000 -
b1001000 0
b1001000 h"
b1001000 9"
b101101010000101000110011 6
b101101010000101000110011 2"
b1000100 3"
b10011 -"
b10011 _"
b1010 M
b1010 1"
b1010 U"
b1001 N
b1001 0"
b1001 T"
b1000000 ,"
b1001010 B
b1010 *"
b101 /"
b0 2
b0 ."
b10000 3
b10000 |
b10000 R"
b0 !
b0 )
b0 +
b0 1
b0 e"
b0 }
b10 #
b10 *
b10 /
b10 Z
b10 {
b10 c"
b1111 7
b1111 7"
b1111 S"
b101 6"
1$
#205000
0$
#210000
b11 B"
b11 r
b1000 O
b10 D"
b1000 A"
b101 @"
b11 @
b1000 ?
b1100 4"
b10 E
b11 :"
b11 P
b101 q
b1011 >
b1011 `"
b1100 =
b1100 a"
b10110 A
b1100 H
b10110 F
b10110 I
b1011000000000001100 G
b1010000 D
b110101100000101010111100 '
b110101100000101010111100 .
b110101100000101010111100 X
b110101100000101010111100 i"
b1110 w
b10000 7
b10000 7"
b10000 S"
b10 6"
b10011 3
b10011 |
b10011 R"
b101 !
b101 )
b101 +
b101 1
b101 e"
b101 }
b101 #
b101 *
b101 /
b101 Z
b101 {
b101 c"
b10100 -"
b10100 _"
b1011 M
b1011 1"
b1011 U"
b1010 N
b1010 0"
b1010 T"
b1000100 ,"
b1001111 B
b1011 *"
b11 /"
b101 2
b101 ."
b110001011000101100110011 6
b110001011000101100110011 2"
b1001000 3"
b1010000 C
b1001100 &
b1001100 -
b1001100 0
b1001100 h"
b1001100 9"
b10011 u
1$
#215000
0$
#220000
0R
b0 ]
b0 H"
b1000 B"
b1000 @
b101 ?
b0 Q"
b1101 4"
b1000 r
b1011 O
b11111111111111111111111111111011 D"
b1011 A"
b11 @"
b1010100 D
b111001101000101100111011 '
b111001101000101100111011 .
b111001101000101100111011 X
b111001101000101100111011 i"
b1100 >
b1100 `"
b1101 =
b1101 a"
b10101 A
b111100 E"
b1101 H
b10101 F
b100000010100 I
b1100000100000001100 G
b1000 P
b1000 :"
b11 q
b101 E
b1111 w
b10100 u
b1010100 C
b1010000 &
b1010000 -
b1010000 0
b1010000 h"
b1010000 9"
b110101100000101010111100 6
b110101100000101010111100 2"
b1001100 3"
b10110 -"
b10110 _"
b1100 M
b1100 1"
b1100 U"
b1011 N
b1011 0"
b1011 T"
b1001000 ,"
b1010100 B
b1100 *"
b1000 /"
b11 2
b11 ."
b10100 3
b10100 |
b10100 R"
b11 !
b11 )
b11 +
b11 1
b11 e"
b11 }
b1000 #
b1000 *
b1000 /
b1000 Z
b1000 {
b1000 c"
b10011 7
b10011 7"
b10011 S"
b101 6"
1$
#225000
0$
#230000
b101 B"
b101 r
b1101 O
b11 D"
b1101 A"
b1000 @"
b101 @
b0 ?
b1110 4"
b1000 E
b0 <"
b111100 ?"
b101 :"
b101 P
b1000 q
b1101 >
b1101 `"
b1110 =
b1110 a"
b10110 A
b111011 E"
b1110 H
b10110 F
b10110 I
b1101000000000001110 G
b1011000 D
b111101110000101010111100 '
b111101110000101010111100 .
b111101110000101010111100 X
b111101110000101010111100 i"
b10000 w
b10100 7
b10100 7"
b10100 S"
b1000 6"
b10110 3
b10110 |
b10110 R"
b1000 !
b1000 )
b1000 +
b1000 1
b1000 e"
b1000 }
b1011 #
b1011 *
b1011 /
b1011 Z
b1011 {
b1011 c"
b111100 +"
b0 ~
0&"
b10101 -"
b10101 _"
b1101 M
b1101 1"
b1101 U"
b1100 N
b1100 0"
b1100 T"
b1001100 ,"
b1011001 B
b1101 *"
b101 /"
b1000 2
b1000 ."
b111001101000101100111011 6
b111001101000101100111011 2"
b1010000 3"
b1011000 C
b1010100 &
b1010100 -
b1010100 0
b1010100 h"
b1010100 9"
b10101 u
1$
#235000
0$
#240000
b0 B"
b0 @
b101 ?
b1111 4"
b0 r
b101 O
b101 D"
b101 A"
b101 @"
b1011100 D
b101101010000001010001011 '
b101101010000001010001011 .
b101101010000001010001011 X
b101101010000001010001011 i"
b1110 >
b1110 `"
b1111 =
b1111 a"
b10101 A
b111100 E"
b1111 H
b10101 F
b100000010100 I
b1110000100000001110 G
b111011 ?"
b0 P
b0 :"
b101 q
b1011 E
b10001 w
b10110 u
b1011100 C
b1011000 &
b1011000 -
b1011000 0
b1011000 h"
b1011000 9"
b111101110000101010111100 6
b111101110000101010111100 2"
b1010100 3"
b111011 +"
b10110 -"
b10110 _"
b1110 M
b1110 1"
b1110 U"
b1101 N
b1101 0"
b1101 T"
b1010000 ,"
b1011110 B
b1110 *"
b0 /"
b101 2
b101 ."
04
b10101 3
b10101 |
b10101 R"
b101 !
b101 )
b101 +
b101 1
b101 e"
b101 }
b1101 #
b1101 *
b1101 /
b1101 Z
b1101 {
b1101 c"
b10110 7
b10110 7"
b10110 S"
b1011 6"
1$
#245000
0$
